3;Kugla;12.00;Obicna;1;Bela;123;dobra;null;12
4;crnci;12.00;Obicna;2;Bela;123;dobra;null;8
5;TopG;255.00;Za Kuhanje;3;Mlecna;150;dobra;null;1
6;Balvan;200.00;Obicna;4;Crna;250;nedobra;null;25
7;Juhu;150.00;Za Kuhanje;5;Pederska;69;mmm;null;10
8;Indijanac;400.00;Preliv;5;Pederska;69;mmm;null;10