1;AdinRoss;3;05:00,14:00;OPEN;Loznica,Serbia;4.7;donpoll.jpg
2;LavPremium;4;07:00,13:00;OPEN;Cacak,Serbia;4.4;logo.png
3;Trix;5;07:30,14:00;OPEN;Smederevo,Serbia;4.8;magarinjo.jpg
4;Tvrtko;6;16:00,00:00;CLOSED;Gamzigrad,Serbia;4.0;mokimoki.jpg
5;Trix;7,8;07:30,14:00;OPEN;Smederevo,Serbia;4.8;sakal.jpg
6;Jajkan69;7;10:00,23:30;OPEN;Jajce,BiH;0.00;sakal.jpg
7;Belgija;7;10:00,23:30;OPEN;Belgija,Belgija;0.00;donpoll.jpg
9;Kugla; ;13:00,23:00;OPEN;Srebrenica,BIH;0.00;anubiscallouts.jpg